{
    "openapi": "3.0.2",
    "info": {
        "title": "Desafio Backend",
        "description": "Para realizar las consultas el usuario debe enviar en el header `x-api-key: <token>`.",
        "version": "1.1"
    },
    "paths": {
        "/users": {
            "get": {
                "tags": [
                    "Usuarios"
                ],
                "summary": "Users list",
                "description": "API que retorna la lista de colaboradores. ",
                "operationId": "",
                "responses": {
                    "200": {
                        "message": "Successful Response",
                        "content": {
                            "application/json": {
                                "schema": {
                                    "title": "Response Collaborator List - API Method Get",
                                    "type": "array",
                                    "$ref": "#/components/schemas/UsersModel"
                                }
                            }
                        }
                    },
                    "404": {
                        "description": "Validation Error",
                        "content": {
                            "application/json": {
                                "schema": {
                                    "$ref": "#/components/schemas/HTTPValidationError"
                                }
                            }
                        }
                    }
                }
            },
            "post": {
                "tags": [
                    "Usuarios"
                ],
                "summary": "Crear un Usuario o Colaborador",
                "parameters": [
                    {
                        "description": "email",
                        "required": true,
                        "schema": {
                            "title": "Email",
                            "maxLength": 3,
                            "minLength": 3,
                            "type": "string",
                            "description": "Correo Electrónico"
                        },
                        "name": "email",
                        "in": "body"
                    },
                    {
                        "description": "first_name",
                        "required": true,
                        "schema": {
                            "title": "Firstname",
                            "type": "string",
                            "description": "first_name"
                        },
                        "name": "first_name",
                        "in": "body"
                    },
                    {
                        "description": "last_name",
                        "required": true,
                        "schema": {
                            "title": "Lastname",
                            "type": "string",
                            "description": "last_name"
                        },
                        "name": "last_name",
                        "in": "body"
                    },
                    {
                        "description": "date_of_birth",
                        "required": true,
                        "schema": {
                            "title": "date_of_birth",
                            "type": "string",
                            "description": "date_of_birth"
                        },
                        "name": "date_of_birth",
                        "in": "body"
                    },
                    {
                        "description": "phone_number",
                        "required": true,
                        "schema": {
                            "title": "phone_number",
                            "type": "string",
                            "description": "phone_number"
                        },
                        "name": "phone_number",
                        "in": "body"
                    },
                    {
                        "description": "office",
                        "required": true,
                        "schema": {
                            "title": "office",
                            "type": "string",
                            "description": "office"
                        },
                        "name": "office",
                        "in": "body"
                    },
                    {
                        "description": "salary",
                        "required": true,
                        "schema": {
                            "title": "salary",
                            "type": "string",
                            "description": "salary"
                        },
                        "name": "salary",
                        "in": "body"
                    }

                ],
                "responses": {
                    "200": {
                        "description": "Successful Response",
                        "content": {
                            "application/json": {
                                "schema": {
                                    "$ref": "#/components/schemas/UserModelSave"
                                }
                            }
                        }
                    },
                    "404": {
                        "description": "Validation Error",
                        "content": {
                            "application/json": {
                                "schema": {
                                    "$ref": "#/components/schemas/HTTPValidationError"
                                }
                            }
                        }
                    }
                }
            }
        },
        "/users/{id}": {
            "get": {
                "tags": [
                    "Usuarios"
                ],
                "summary": "Detalle de Usuario o colaborador",
                "operationId": "",
                "parameters": [
                    {
                        "description": "id",
                        "required": true,
                        "schema": {
                            "title": "id",
                            "type": "string"
                        },
                        "name": "id",
                        "in": "path"
                    }
                ],
                "responses": {
                    "200": {
                        "description": "Successful Response",
                        "content": {
                            "application/json": {
                                "schema": {
                                    "$ref": "#/components/schemas/UserModel"
                                }
                            }
                        }
                    },
                    "404": {
                        "description": "Validation Error",
                        "content": {
                            "application/json": {
                                "schema": {
                                    "$ref": "#/components/schemas/HTTPValidationError"
                                }
                            }
                        }
                    }
                }
            },
            "put": {
                "tags": [
                    "Usuarios"
                ],
                "summary": "Actualizar datos de un Usuario o Colaborador",
                "operationId": "123",
                "parameters": [
                    {
                        "description": "id",
                        "required": true,
                        "schema": {
                            "title": "id",
                            "type": "string"
                        },
                        "name": "id",
                        "in": "path"
                    },
                    {
                        "description": "first_name",
                        "required": true,
                        "schema": {
                            "title": "Firstname",
                            "type": "string",
                            "description": "first_name"
                        },
                        "name": "first_name",
                        "in": "body"
                    },
                    {
                        "description": "last_name",
                        "required": true,
                        "schema": {
                            "title": "Lastname",
                            "type": "string",
                            "description": "last_name"
                        },
                        "name": "last_name",
                        "in": "body"
                    },
                    {
                        "description": "date_of_birth",
                        "required": true,
                        "schema": {
                            "title": "date_of_birth",
                            "type": "string",
                            "description": "date_of_birth"
                        },
                        "name": "date_of_birth",
                        "in": "body"
                    },
                    {
                        "description": "phone_number",
                        "required": true,
                        "schema": {
                            "title": "phone_number",
                            "type": "string",
                            "description": "phone_number"
                        },
                        "name": "phone_number",
                        "in": "body"
                    },
                    {
                        "description": "office",
                        "required": true,
                        "schema": {
                            "title": "office",
                            "type": "string",
                            "description": "office"
                        },
                        "name": "office",
                        "in": "body"
                    },
                    {
                        "description": "salary",
                        "required": true,
                        "schema": {
                            "title": "salary",
                            "type": "string",
                            "description": "salary"
                        },
                        "name": "salary",
                        "in": "body"
                    }
                ],
                "responses": {
                    "200": {
                        "description": "Successful Response",
                        "content": {
                            "application/json": {
                                "schema": {
                                    "$ref": "#/components/schemas/UserModelSave"
                                }
                            }
                        }
                    },
                    "404": {
                        "description": "Validation Error",
                        "content": {
                            "application/json": {
                                "schema": {
                                    "$ref": "#/components/schemas/HTTPValidationError"
                                }
                            }
                        }
                    }
                }
            },
            "delete": {
                "tags": [
                    "Usuarios"
                ],
                "summary": "Eliminar un usuario o colaborador",
                "operationId": "123",
                "parameters": [
                    {
                        "description": "id",
                        "required": true,
                        "schema": {
                            "title": "id",
                            "type": "string"
                        },
                        "name": "id",
                        "in": "path"
                    }
                ],
                "responses": {
                    "200": {
                        "description": "Successful Response",
                        "content": {
                            "application/json": {
                                "schema": {
                                    "$ref": "#/components/schemas/UserModelSave"
                                }
                            }
                        }
                    },
                    "404": {
                        "description": "Validation Error",
                        "content": {
                            "application/json": {
                                "schema": {
                                    "$ref": "#/components/schemas/HTTPValidationError"
                                }
                            }
                        }
                    }
                }
            }
        }
    },
    "components": {
        "schemas": {
            "HTTPValidationError": {
                "title": "HTTPValidationError",
                "type": "object",
                "properties": {
                    "detail": {
                        "title": "Detail",
                        "type": "array",
                        "items": {
                            "$ref": "#/components/schemas/ValidationError"
                        }
                    }
                }
            },
            "UsersModel": {
                "title": "UsersModel",
                "type": "object",
                "properties": {
                    "_id": {
                        "title": "_id",
                        "type": "string",
                        "default": ""
                    },
                    "created_at": {
                        "title": "Created_at",
                        "type": "string",
                        "default": ""
                    },
                    "updated_at": {
                        "title": "Updated_at",
                        "type": "string",
                        "default": ""
                    },
                    "email": {
                        "title": "Email",
                        "type": "string",
                        "default": ""
                    },
                    "phone_number": {
                        "title": "Phone_number",
                        "type": "string",
                        "default": ""
                    },
                    "first_name": {
                        "title": "First_name",
                        "type": "string",
                        "default": ""
                    },
                    "last_name": {
                        "title": "Last_name",
                        "type": "string",
                        "default": ""
                    },
                    "date_of_birth": {
                        "title": "Date_of_birth",
                        "type": "string",
                        "default": ""
                    },
                    "attributes": {
                        "title": "Attributes",
                        "type": "object",
                        "properties": {
                            "message": {
                                "title": "Message",
                                "type": "String",
                                "items": {
                                    "type": "string"
                                }
                            },
                            "status": {
                                "title": "Status",
                                "type": "string"
                            },
                            "type": {
                                "title": "Error Type",
                                "type": "string"
                            }
                        }
                    }
                }
            },
            "UserModel": {
                "title": "UserModel",
                "type": "object",
                "properties": {
                    "_id": {
                        "title": "_id",
                        "type": "string",
                        "default": ""
                    },
                    "created_at": {
                        "title": "Created_at",
                        "type": "string",
                        "default": ""
                    },
                    "updated_at": {
                        "title": "Updated_at",
                        "type": "string",
                        "default": ""
                    },
                    "email": {
                        "title": "Email",
                        "type": "string",
                        "default": ""
                    },
                    "phone_number": {
                        "title": "Phone_number",
                        "type": "string",
                        "default": ""
                    },
                    "first_name": {
                        "title": "First_name",
                        "type": "string",
                        "default": ""
                    },
                    "last_name": {
                        "title": "Last_name",
                        "type": "string",
                        "default": ""
                    },
                    "date_of_birth": {
                        "title": "Date_of_birth",
                        "type": "string",
                        "default": ""
                    },
                    "attributes": {
                        "title": "Attributes",
                        "type": "object",
                        "properties": {
                            "message": {
                                "title": "Message",
                                "type": "String",
                                "items": {
                                    "type": "string"
                                }
                            },
                            "status": {
                                "title": "Status",
                                "type": "string"
                            },
                            "type": {
                                "title": "Error Type",
                                "type": "string"
                            }
                        }
                    }
                }
            },
            "UserModelSave": {
                "title": "UserModelSave",
                "type": "object",
                "properties": {
                    "_id": {
                        "title": "_id",
                        "type": "string",
                        "default": ""
                    },
                    "created_at": {
                        "title": "Created_at",
                        "type": "string",
                        "default": ""
                    },
                    "updated_at": {
                        "title": "Updated_at",
                        "type": "string",
                        "default": ""
                    },
                    "email": {
                        "title": "Email",
                        "type": "string",
                        "default": ""
                    },
                    "phone_number": {
                        "title": "Phone_number",
                        "type": "string",
                        "default": ""
                    },
                    "first_name": {
                        "title": "First_name",
                        "type": "string",
                        "default": ""
                    },
                    "last_name": {
                        "title": "Last_name",
                        "type": "string",
                        "default": ""
                    },
                    "date_of_birth": {
                        "title": "Date_of_birth",
                        "type": "string",
                        "default": ""
                    },
                    "attributes": {
                        "title": "Attributes",
                        "type": "object",
                        "properties": {
                            "message": {
                                "title": "Message",
                                "type": "String",
                                "items": {
                                    "type": "string"
                                }
                            },
                            "status": {
                                "title": "Status",
                                "type": "string"
                            },
                            "type": {
                                "title": "Error Type",
                                "type": "string"
                            }
                        }
                    }
                }
            },
            "ValidationError": {
                "title": "ValidationError",
                "required": [
                    "message",
                    "status",
                    "type"
                ],
                "type": "object",
                "properties": {
                    "message": {
                        "title": "Message",
                        "type": "String",
                        "items": {
                            "type": "string"
                        }
                    },
                    "status": {
                        "title": "Status",
                        "type": "string"
                    },
                    "type": {
                        "title": "Error Type",
                        "type": "string"
                    }
                }
            }
        }
    }
}